waves_cpu.vcd
$date
	Tue Jan 13 00:40:16 2026
$end
$version
	Icarus Verilog
$end
$timescale
	1ps
$end
$scope module tb_cpu $end
$scope module DUT $end
$scope module datapath_inst $end
$scope module pc_inst $end
$var wire 1 ! clk $end
$var wire 1 " reset $end
$var wire 32 # input_next_address [31:0] $end
$var reg 32 $ output_next_address [31:0] $end
$upscope $end
$upscope $end
$upscope $end
$upscope $end
$scope module tb_cpu $end
$scope module DUT $end
$scope module datapath_inst $end
$scope module reg_inst $end
$var wire 1 % RegWrite $end
$var wire 32 & WD [31:0] $end
$var wire 1 ! clk $end
$var wire 5 ' rd [4:0] $end
$var wire 1 " reset $end
$var wire 5 ( rs1 [4:0] $end
$var wire 5 ) rs2 [4:0] $end
$var wire 32 * rs2_output [31:0] $end
$var wire 32 + rs1_output [31:0] $end
$upscope $end
$upscope $end
$upscope $end
$upscope $end
$scope module tb_cpu $end
$scope module DUT $end
$scope module datapath_inst $end
$scope module alu_inst $end
$var wire 1 , BrLt $end
$var wire 32 - a [31:0] $end
$var wire 4 . alu_op [3:0] $end
$var wire 1 / overflow $end
$var wire 32 0 sa [31:0] $end
$var wire 32 1 sb [31:0] $end
$var wire 5 2 shamt [4:0] $end
$var wire 32 3 b [31:0] $end
$var wire 1 4 BrLtU $end
$var wire 1 5 BrEq $end
$var parameter 4 6 ADD $end
$var parameter 4 7 AND $end
$var parameter 4 8 OR $end
$var parameter 4 9 SLL $end
$var parameter 4 : SLT $end
$var parameter 4 ; SLTU $end
$var parameter 4 < SRA $end
$var parameter 4 = SRL $end
$var parameter 4 > SUB $end
$var parameter 4 ? XOR $end
$var reg 32 @ result [31:0] $end
$upscope $end
$upscope $end
$upscope $end
$upscope $end
$scope module tb_cpu $end
$scope module DUT $end
$scope module datapath_inst $end
$scope module immgen_inst $end
$var wire 3 A immSrc [2:0] $end
$var wire 32 B instr [31:0] $end
$var wire 32 C imm_u [31:0] $end
$var wire 32 D imm_s [31:0] $end
$var wire 32 E imm_j [31:0] $end
$var wire 32 F imm_i [31:0] $end
$var wire 32 G imm_b [31:0] $end
$var reg 32 H Imm [31:0] $end
$upscope $end
$upscope $end
$upscope $end
$upscope $end
$enddefinitions $end
$comment Show the parameter values. $end
$dumpall
b101 ?
b10 >
b111 =
b1000 <
b1010 ;
b1001 :
b110 9
b100 8
b11 7
b1 6
$end
#0
$dumpvars
b0 H
bx0 G
bx F
bx0 E
bx D
bx000000000000 C
bx B
bx A
bx @
x5
x4
bx 3
bx 2
bx 1
bx 0
x/
bx .
bx -
x,
bx +
bx *
bx )
bx (
bx '
bx &
x%
bx $
bx #
0"
0!
$end
#1000
1!
#2000
0!
1"
#3000
0,
0/
04
b11010000 &
b10000 2
05
b11010000 @
b11111111111111111111111111010000 H
b11111111111111111111111111010000 1
b11111111111111111111111111010000 3
b100000000 0
b100000000 -
b0 A
1%
b100000000 +
b1 .
b100 #
b10 '
b10 (
b11111111111111111111111111010000 F
b11111111111111111111111111000010 D
b11111111111111111111011111000010 G
b11111111111100010000011111010000 E
b11111101000000010000000000000000 C
b10000 )
b11111101000000010000000100010011 B
b0 $
1!
#4000
0!
0"
#5000
b1100 2
b101100 1
b101100 3
b11111100 &
05
b11111100 @
b1 A
0%
b101100 H
b1 .
b11010000 0
b11010000 -
b1000 #
b1100 '
b100001 F
b101100 D
b101100 G
b10010100000100000 E
b10000100010010000000000000 C
b1 )
b11010000 +
b10000100010010011000100011 B
b100 $
1!
#6000
0!
#7000
b11111000 &
b1000 2
b11111000 @
b101000 1
b101000 3
b101000 H
b1100 #
b101000 D
b101000 G
b1000 '
b101000 F
b10010000000101000 E
b10100000010010000000000000 C
b1000 )
b10100000010010010000100011 B
b1000 $
1!
#8000
0!
#9000
b100000000 &
b10000 2
b100000000 @
b110000 1
b110000 3
b110000 H
b0 A
1%
b10000 #
b110000 F
b10000000000110000 E
b11000000010000000000000000 C
b10000 )
b11000000010000010000010011 B
b1100 $
1!
#10000
0!
#11000
b11 &
b11 2
b11 @
b0 0
b0 -
b11 1
b11 3
b0 +
b11 H
b10100 #
b1111 '
b0 (
b11 F
b1111 D
b100000001110 G
b100000000010 E
b1100000000000000000000 C
b11 )
b1100000000011110010011 B
b10000 $
1!
#12000
0!
#13000
b1100 2
b100000000 0
b100000000 -
b11111111111111111111111111101100 1
b11111111111111111111111111101100 3
b11101100 &
b11101100 @
b1 A
0%
b11 *
b100000000 +
b11111111111111111111111111101100 H
b1 .
b11000 #
b1100 '
b1111 )
b1000 (
b11111111111111111111111111101111 F
b11111111111111111111111111101100 D
b11111111111111111111011111101100 G
b11111111111101000010111111101110 E
b11111110111101000010000000000000 C
b11111110111101000010011000100011 B
b10100 $
1!
#14000
0!
#15000
b111 &
b111 2
b111 @
b0 0
b0 -
b111 1
b111 3
b0 A
1%
bx *
b0 +
b111 H
b11100 #
b1111 '
b111 )
b0 (
b111 F
b1111 D
b100000001110 G
b100000000110 E
b11100000000000000000000 C
b11100000000011110010011 B
b11000 $
1!
#16000
0!
#17000
b1000 2
b100000000 0
b100000000 -
b11111111111111111111111111101000 1
b11111111111111111111111111101000 3
b11101000 &
b11101000 @
b1 A
0%
b111 *
b100000000 +
b11111111111111111111111111101000 H
b1 .
b100000 #
b1000 '
b1111 )
b1000 (
b11111111111111111111111111101111 F
b11111111111111111111111111101000 D
b11111111111111111111011111101000 G
b11111111111101000010111111101110 E
b11111110111101000010000000000000 C
b11111110111101000010010000100011 B
b11100 $
1!
#18000
0!
#19000
b10100000 &
b0 2
b10100000 @
b0 0
b0 -
b10100000 1
b10100000 3
b0 A
1%
b0 *
b0 +
b10100000 H
b100100 #
b1111 '
b0 )
b0 (
b10100000 F
b10101111 D
b100010101110 G
b10100000 E
b1010000000000000000000000000 C
b1010000000000000011110010011 B
b100000 $
1!
#20000
0!
#21000
b100 2
b100000000 0
b100000000 -
b11111111111111111111111111100100 1
b11111111111111111111111111100100 3
b11100100 &
b11100100 @
b1 A
0%
b10100000 *
b100000000 +
b11111111111111111111111111100100 H
b1 .
b101000 #
b100 '
b1111 )
b1000 (
b11111111111111111111111111101111 F
b11111111111111111111111111100100 D
b11111111111111111111011111100100 G
b11111111111101000010111111101110 E
b11111110111101000010000000000000 C
b11111110111101000010001000100011 B
b100100 $
1!
#22000
0!
#23000
b0 &
b0 2
15
b0 @
b0 0
b0 -
b0 1
b0 3
b11 A
1%
b0 *
b0 +
b100000 H
b1001000 #
b0 '
b0 )
b0 (
b100000 F
b100000 D
b100000 G
b100000 E
b10000000000000000000000000 C
b10000000000000000001101111 B
b101000 $
1!
#24000
0!
#25000
0,
04
b1100 2
05
b11101100 @
b11111111111111111111111111101100 1
b11111111111111111111111111101100 3
b100000000 0
b100000000 -
b11 &
b0 A
bx *
b100000000 +
b11111111111111111111111111101100 H
b1001100 #
b1110 '
b1100 )
b1000 (
b11111111111111111111111111101100 F
b11111111111111111111111111101110 D
b11111111111111111111011111101110 G
b11111111111101000010011111101100 E
b11111110110001000010000000000000 C
b11111110110001000010011100000011 B
b1001000 $
1!
#26000
0!
#27000
b111 &
b1000 2
b11101000 @
b11111111111111111111111111101000 1
b11111111111111111111111111101000 3
b11111111111111111111111111101000 H
b100000000 *
b1010000 #
b11111111111111111111111111101111 D
b11111111111111111111111111101110 G
b1111 '
b11111111111111111111111111101000 F
b11111111111101000010011111101000 E
b11111110100001000010000000000000 C
b1000 )
b11111110100001000010011110000011 B
b1001100 $
1!
#28000
0!
#29000
1/
0,
14
b111 2
b11111111111111111111111111111100 @
b10 .
b11 0
b11 -
b111 1
b111 3
b11111111111111111111111111111100 &
b10 A
0%
b111 *
b11 +
b11111111111111111111111111011100 H
b101100 #
b11101 '
b1111 )
b1110 (
b11111111111111111111111111001111 F
b11111111111111111111111111011101 D
b11111111111111111111111111011100 G
b11111111111101110110111111001110 E
b11111100111101110110000000000000 C
b11111100111101110110111011100011 B
b1010000 $
1!
#30000
0!
#31000
0/
0,
04
b100 2
b11100100 @
b1 .
b11111111111111111111111111100100 1
b11111111111111111111111111100100 3
b100000000 0
b100000000 -
b10100000 &
b0 A
1%
bx *
b100000000 +
b11111111111111111111111111100100 H
b110000 #
b1111 '
b100 )
b1000 (
b11111111111111111111111111100100 F
b11111111111111111111111111101111 D
b11111111111111111111111111101110 G
b11111111111101000010011111100100 E
b11111110010001000010000000000000 C
b11111110010001000010011110000011 B
b101100 $
1!
#32000
0!
#33000
b11 &
b1100 2
b11101100 @
b11111111111111111111111111101100 1
b11111111111111111111111111101100 3
b11111111111111111111111111101100 H
b110100 #
b11111111111111111111111111101010 D
b11111111111111111111011111101010 G
b1010 '
b11111111111111111111111111101100 F
b11111111111101000010011111101100 E
b11111110110001000010000000000000 C
b1100 )
b11111110110001000010010100000011 B
b110000 $
1!
#34000
0!
#35000
b0 2
b1111000000010100000 @
b10100000 0
b10100000 -
b1111000000000000000 1
b1111000000000000000 3
b111000 &
b100 A
b0 *
b10100000 +
b1111000000000000000 H
b111000 #
b1 '
b0 )
b1111 (
b0 F
b1 D
b100000000000 G
b1111000000000000000 E
b1111000000000000000 C
b1111000000011100111 B
b110100 $
1!
#36000
0!
#37000
0,
04
b11100000 @
b100000000 0
b100000000 -
b11111111111111111111111111100000 1
b11111111111111111111111111100000 3
b1 A
0%
b11 *
b100000000 +
b11111111111111111111111111100000 H
b11100000 &
b111100 #
b0 '
b1010 )
b1000 (
b11111111111111111111111111101010 F
b11111111111111111111111111100000 D
b11111111111111111111011111100000 G
b11111111111101000010011111101010 E
b11111110101001000010000000000000 C
b11111110101001000010000000100011 B
b111000 $
1!
#38000
0!
#39000
b0 2
b11100000 @
b11111111111111111111111111100000 1
b11111111111111111111111111100000 3
b11 &
b0 A
1%
b11111111111111111111111111100000 H
b0 *
b1000000 #
b11111111111111111111111111101110 D
b11111111111111111111011111101110 G
b1110 '
b11111111111111111111111111100000 F
b11111111111101000010011111100000 E
b11111110000001000010000000000000 C
b0 )
b11111110000001000010011100000011 B
b111100 $
1!
#40000
0!
#41000
bx &
b11100 2
b11011100 @
b11111111111111111111111111011100 1
b11111111111111111111111111011100 3
b11111111111111111111111111011100 H
bx *
b1000100 #
b1111 '
b11111111111111111111111111011100 F
b11111111111111111111111111001111 D
b11111111111111111111111111001110 G
b11111111111101000010011111011100 E
b11111101110001000010000000000000 C
b11100 )
b11111101110001000010011110000011 B
b1000000 $
1!
#42000
0!
#43000
x/
x,
x4
bx 2
x5
bx @
b10 .
b11 0
b11 -
bx 1
bx 3
bx &
b10 A
0%
b11 +
b10100 H
b1011000 #
b10100 '
b1110 (
b1111 F
b10100 D
b10100 G
b1110000100000001110 E
b111101110000000000000000 C
b1111 )
b111101110000101001100011 B
b1000100 $
1!
#44000
0!
#45000
0,
0/
04
b0 &
b0 2
15
b0 @
b1 .
b0 1
b0 3
b0 0
b0 -
b0 A
1%
b0 H
b0 *
b0 +
b1011100 #
b0 D
b0 G
b0 '
b0 F
b0 E
b0 C
b0 )
b0 (
b10011 B
b1011000 $
1!
#46000
0!
#47000
x,
x/
x4
b11000 2
x5
bx @
b111000 1
b111000 3
b100100011000000000000 &
bx 0
bx -
b100 A
b1 .
b100100011000000000000 H
b111000 *
bx +
b1100000 #
b1111 D
b100000001110 G
b1111 '
b1 F
b100011100000000000 E
b100100011000000000000 C
b1 )
b100 (
b100100011011110110111 B
b1011100 $
1!
#48000
0!
#49000
0,
0/
04
b10110 2
05
b100100011010001010110 @
b100100011000000000000 0
b100100011000000000000 -
b100100011010001010110 &
b10001010110 1
b10001010110 3
b0 A
b100100011000000000000 +
b10001010110 H
bx *
b1100100 #
b1111 (
b10001010110 F
b10001001111 D
b110001001110 G
b1111000010001010110 E
b1000101011001111000000000000000 C
b10110 )
b1000101011001111000011110010011 B
b1100000 $
1!
#50000
0!
#51000
b11000 2
b11111111111111111111111111011000 1
b11111111111111111111111111011000 3
b11011000 &
b11011000 @
b100000000 0
b100000000 -
b1 A
0%
b11111111111111111111111111011000 H
b1 .
b100100011010001010110 *
b100000000 +
b1101000 #
b11000 '
b1000 (
b11111111111111111111111111001111 F
b11111111111111111111111111011000 D
b11111111111111111111011111011000 G
b11111111111101000010111111001110 E
b11111100111101000010000000000000 C
b1111 )
b11111100111101000010110000100011 B
b1100100 $
1!
#52000
0!
#53000
b0 2
15
b0 @
b0 0
b0 -
b0 1
b0 3
b1000000000000 &
b100 A
1%
b0 *
b0 +
b1000000000000 H
b1101100 #
b1111 '
b0 )
b0 (
b0 F
b1111 D
b100000001110 G
b1000000000000 E
b1000000000000 C
b1011110110111 B
b1101000 $
1!
#54000
0!
#55000
b1000 2
05
b1000011001000 @
b11001000 1
b11001000 3
b1000000000000 0
b1000000000000 -
bx &
b0 A
b100000000 *
b1000000000000 +
b11001000 H
b1110000 #
b1000 )
b1111 (
b11001000 F
b11001111 D
b100011001110 G
b1111010000011001000 E
b1100100001111010000000000000 C
b1100100001111010011110000011 B
b1101100 $
1!
#56000
0!
#57000
b100100011010001010110 &
0/
0,
b11000 2
04
b11111111111111111111111111011000 1
b11111111111111111111111111011000 3
05
b11011000 @
b11111111111111111111111111011000 H
bx *
b100000000 0
b100000000 -
b1110100 #
b1110 '
b1000 (
b11111111111111111111111111011000 F
b11111111111111111111111111001110 D
b11111111111111111111011111001110 G
b11111111111101000010011111011000 E
b11111101100001000010000000000000 C
b11000 )
b100000000 +
b11111101100001000010011100000011 B
b1110000 $
1!
#58000
0!
#59000
x/
x,
x4
b0 2
x5
bx @
bx 0
bx -
b0 1
b0 3
bx &
b1 A
0%
bx +
b0 H
b100100011010001010110 *
b1111000 #
b0 '
b1111 (
b1110 F
b0 D
b0 G
b1111010000000001110 E
b111001111010000000000000 C
b1110 )
b111001111010000000100011 B
b1110100 $
1!
#60000
0!
#61000
0,
0/
04
15
b0 @
b1000000000000 &
b0 0
b0 -
b100 A
1%
b1000000000000 H
b0 *
b0 +
b1111100 #
b1111 D
b100000001110 G
b1111 '
b0 F
b1000000000000 E
b1000000000000 C
b0 )
b0 (
b1011110110111 B
b1111000 $
1!
#62000
0!
#63000
b1000 2
05
b1000011001000 @
b11001000 1
b11001000 3
b1000000000000 0
b1000000000000 -
bx &
b0 A
b100000000 *
b1000000000000 +
b11001000 H
b10000000 #
b1000 )
b1111 (
b11001000 F
b11001111 D
b100011001110 G
b1111010000011001000 E
b1100100001111010000000000000 C
b1100100001111010011110000011 B
b1111100 $
1!
#64000
0!
#65000
x/
x,
b0 2
x4
b0 1
b0 3
x5
bx @
b0 *
b0 H
bx 0
bx -
b10000100 #
b0 )
b0 F
b1111 D
b100000001110 G
b1111010000000000000 E
b1111010000000000000 C
bx +
b1111010011110000011 B
b10000000 $
1!
#66000
0!
#67000
0,
0/
04
b11010100 &
b10100 2
05
b11010100 @
b100000000 0
b100000000 -
b11111111111111111111111111010100 1
b11111111111111111111111111010100 3
b1 A
0%
bx *
b100000000 +
b11111111111111111111111111010100 H
b10001000 #
b10100 '
b1111 )
b1000 (
b11111111111111111111111111001111 F
b11111111111111111111111111010100 D
b11111111111111111111011111010100 G
b11111111111101000010111111001110 E
b11111100111101000010000000000000 C
b11111100111101000010101000100011 B
b10000100 $
1!
#68000
0!
#69000
15
b0 &
b0 2
b0 @
b0 0
b0 -
b0 1
b0 3
b0 A
1%
b0 *
b0 +
b0 H
b10001100 #
b1111 '
b0 )
b0 (
b0 F
b1111 D
b100000001110 G
b0 E
b0 C
b11110010011 B
b10001000 $
1!
#70000
0!
#71000
b10010000 #
b1010 D
b1010 G
b1010 '
b1111000000000000000 E
b1111000000000000000 C
b1111 (
b1111000010100010011 B
b10001100 $
1!
#72000
0!
#73000
b1100 2
05
b11111100 @
b11010000 0
b11010000 -
b101100 1
b101100 3
bx &
bx *
b11010000 +
b101100 H
b1 .
b10010100 #
b1 '
b1100 )
b10 (
b101100 F
b100001 D
b100000100000 G
b10010000000101100 E
b10110000010010000000000000 C
b10110000010010000010000011 B
b10010000 $
1!
#74000
0!
#75000
b1000 2
b11111000 @
b101000 1
b101000 3
b101000 H
b100000000 *
b10011000 #
b101000 D
b101000 G
b1000 '
b101000 F
b10010000000101000 E
b10100000010010000000000000 C
b1000 )
b10100000010010010000000011 B
b10010100 $
1!
#76000
0!
#77000
b10000 2
b100000000 @
b110000 1
b110000 3
b100000000 &
b110000 H
b10011100 #
b100010 D
b100010 G
b10 '
b110000 F
b10000000000110000 E
b11000000010000000000000000 C
b10000 )
bx *
b11000000010000000100010011 B
b10011000 $
1!
#78000
0!
#79000
x/
x,
x4
b0 2
x5
bx @
b1000000000000000 1
b1000000000000000 3
b10100000 &
bx 0
bx -
b100 A
b1000000000000000 H
b0 *
bx +
b10100000 #
b0 '
b1 (
b0 F
b0 D
b0 G
b1000000000000000 E
b1000000000000000 C
b0 )
b1000000001100111 B
b10011100 $
1!
#80000
0!
#81000
0,
0/
04
05
b11100000 @
b100000000 0
b100000000 -
b11111111111111111111111111100000 1
b11111111111111111111111111100000 3
b0 A
b100000000 +
b11111111111111111111111111100000 H
b11100000 &
b10100100 #
b10 '
b10 (
b11111111111111111111111111100000 F
b11111111111111111111111111100010 D
b11111111111111111111011111100010 G
b11111111111100010000011111100000 E
b11111110000000010000000000000000 C
b11111110000000010000000100010011 B
b10100000 $
1!
#82000
0!
#83000
b11100 2
b11100 1
b11100 3
b11111100 &
05
b11111100 @
b11100000 0
b11100000 -
b1 A
0%
bx *
b11100 H
b1 .
b11100000 +
b10101000 #
b11100 '
b1000 )
b1000 F
b11100 D
b11100 G
b10010000000001000 E
b100000010010000000000000 C
b100000010010111000100011 B
b10100100 $
1!
#84000
0!
#85000
b100000000 &
b0 2
b100000000 @
b100000 1
b100000 3
b0 A
1%
b0 *
b100000 H
b10101100 #
b1000 '
b0 )
b100000 F
b101000 D
b101000 G
b10000000000100000 E
b10000000010000000000000000 C
b10000000010000010000010011 B
b10101000 $
1!
#86000
0!
#87000
b1100 2
b100000000 0
b100000000 -
b11111111111111111111111111101100 1
b11111111111111111111111111101100 3
b11101100 &
05
b11101100 @
b1 A
0%
b100000000 +
b11111111111111111111111111101100 H
b1 .
b10110000 #
b1100 '
b1010 )
b1000 (
b11111111111111111111111111101010 F
b11111111111111111111111111101100 D
b11111111111111111111011111101100 G
b11111111111101000010011111101010 E
b11111110101001000010000000000000 C
b11111110101001000010011000100011 B
b10101100 $
1!
#88000
0!
#89000
b1100 2
b11101100 @
b11111111111111111111111111101100 1
b11111111111111111111111111101100 3
b0 &
b0 A
1%
b11111111111111111111111111101100 H
bx *
b10110100 #
b11111111111111111111111111101111 D
b11111111111111111111111111101110 G
b1111 '
b11111111111111111111111111101100 F
b11111111111101000010011111101100 E
b11111110110001000010000000000000 C
b1100 )
b11111110110001000010011110000011 B
b10110000 $
1!
#90000
0!
#91000
b1 2
b1 @
b0 0
b0 -
b1 1
b1 3
b1 &
b0 +
b1 H
b10111000 #
b1 )
b1111 (
b1 F
b1111 D
b100000001110 G
b1111000100000000000 E
b101111000000000000000 C
b101111000011110010011 B
b10110100 $
1!
#92000
0!
#93000
b0 2
b0 1
b0 3
b1 &
b1 @
b0 H
b0 *
b1 0
b1 -
b10111100 #
b1010 D
b1010 G
b1010 '
b0 F
b1111000000000000000 E
b1111000000000000000 C
b0 )
b1 +
b1111000010100010011 B
b10111000 $
1!
#94000
0!
#95000
b11100 2
05
b11111100 @
b11100000 0
b11100000 -
b11100 1
b11100 3
bx &
b1 .
b11100000 +
b11100 H
bx *
b11000000 #
b1000 D
b1000 G
b1000 '
b10 (
b11100 F
b10010000000011100 E
b1110000010010000000000000 C
b11100 )
b1110000010010010000000011 B
b10111100 $
1!
#96000
0!
#97000
b0 2
b100000000 @
b100000 1
b100000 3
b100000000 &
b100000 H
b0 *
b11000100 #
b10 '
b100000 F
b100010 D
b100010 G
b10000000000100000 E
b10000000010000000000000000 C
b0 )
b10000000010000000100010011 B
b11000000 $
1!
#98000
0!
#99000
x/
x,
x4
x5
bx @
b1000000000000000 1
b1000000000000000 3
b11001000 &
bx 0
bx -
b100 A
b1000000000000000 H
bx +
b11001000 #
b0 '
b1 (
b0 F
b0 D
b0 G
b1000000000000000 E
b1000000000000000 C
b1000000001100111 B
b11000100 $
1!
#100000
0!
#101000
bx 2
bx 1
bx 3
b0 A
0%
bx H
bx *
bx &
b11001100 #
bx '
bx (
bx F
bx D
bx0 G
bx0 E
bx000000000000 C
bx )
bx B
b11001000 $
1!
#102000
0!
#103000
b11010000 #
b11001100 $
1!
#104000
0!
#105000
b11010100 #
b11010000 $
1!
#106000
0!
#107000
b11011000 #
b11010100 $
1!
#108000
0!
#109000
b11011100 #
b11011000 $
1!
#110000
0!
#111000
b11100000 #
b11011100 $
1!
#112000
0!
#113000
b11100100 #
b11100000 $
1!
#114000
0!
#115000
b11101000 #
b11100100 $
1!
#116000
0!
#117000
b11101100 #
b11101000 $
1!
#118000
0!
#119000
b11110000 #
b11101100 $
1!
#120000
0!
#121000
b11110100 #
b11110000 $
1!
#122000
0!
#123000
b11111000 #
b11110100 $
1!
#124000
0!
#125000
b11111100 #
b11111000 $
1!
#126000
0!
#127000
b100000000 #
b11111100 $
1!
#128000
0!
#129000
b100000100 #
b100000000 $
1!
#130000
0!
#131000
b100001000 #
b100000100 $
1!
#132000
0!
#133000
b100001100 #
b100001000 $
1!
#134000
0!
#135000
b100010000 #
b100001100 $
1!
#136000
0!
#137000
b100010100 #
b100010000 $
1!
#138000
0!
#139000
b100011000 #
b100010100 $
1!
#140000
0!
#141000
b100011100 #
b100011000 $
1!
#142000
0!
#143000
b100100000 #
b100011100 $
1!
#144000
0!
#145000
b100100100 #
b100100000 $
1!
#146000
0!
#147000
b100101000 #
b100100100 $
1!
#148000
0!
#149000
b100101100 #
b100101000 $
1!
#150000
0!
#151000
b100110000 #
b100101100 $
1!
#152000
0!
#153000
b100110100 #
b100110000 $
1!
#154000
0!
#155000
b100111000 #
b100110100 $
1!
#156000
0!
#157000
b100111100 #
b100111000 $
1!
#158000
0!
#159000
b101000000 #
b100111100 $
1!
#160000
0!
#161000
b101000100 #
b101000000 $
1!
#162000
0!
#163000
b101001000 #
b101000100 $
1!
#164000
0!
#165000
b101001100 #
b101001000 $
1!
#166000
0!
#167000
b101010000 #
b101001100 $
1!
#168000
0!
#169000
b101010100 #
b101010000 $
1!
#170000
0!
#171000
b101011000 #
b101010100 $
1!
#172000
0!
#173000
b101011100 #
b101011000 $
1!
#174000
0!
#175000
b101100000 #
b101011100 $
1!
#176000
0!
#177000
b101100100 #
b101100000 $
1!
#178000
0!
#179000
b101101000 #
b101100100 $
1!
#180000
0!
#181000
b101101100 #
b101101000 $
1!
#182000
0!
#183000
b101110000 #
b101101100 $
1!
#184000
0!
#185000
b101110100 #
b101110000 $
1!
#186000
0!
#187000
b101111000 #
b101110100 $
1!
#188000
0!
#189000
b101111100 #
b101111000 $
1!
#190000
0!
#191000
b110000000 #
b101111100 $
1!
#192000
0!
#193000
b110000100 #
b110000000 $
1!
#194000
0!
#195000
b110001000 #
b110000100 $
1!
#196000
0!
#197000
b110001100 #
b110001000 $
1!
#198000
0!
#199000
b110010000 #
b110001100 $
1!
#200000
0!
#201000
b110010100 #
b110010000 $
1!
#202000
0!
#203000
b110011000 #
b110010100 $
1!
#204000
0!
#205000
b110011100 #
b110011000 $
1!
#206000
0!
#207000
b110100000 #
b110011100 $
1!
#208000
0!
#209000
b110100100 #
b110100000 $
1!
#210000
0!
#211000
b110101000 #
b110100100 $
1!
#212000
0!
#213000
b110101100 #
b110101000 $
1!
#214000
0!
#215000
b110110000 #
b110101100 $
1!
#216000
0!
#217000
b110110100 #
b110110000 $
1!
#218000
0!
#219000
b110111000 #
b110110100 $
1!
#220000
0!
#221000
b110111100 #
b110111000 $
1!
#222000
0!
#223000
b111000000 #
b110111100 $
1!
#224000
0!
#225000
b111000100 #
b111000000 $
1!
#226000
0!
#227000
b111001000 #
b111000100 $
1!
#228000
0!
#229000
b111001100 #
b111001000 $
1!
#230000
0!
#231000
b111010000 #
b111001100 $
1!
#232000
0!
#233000
b111010100 #
b111010000 $
1!
#234000
0!
#235000
b111011000 #
b111010100 $
1!
#236000
0!
#237000
b111011100 #
b111011000 $
1!
#238000
0!
#239000
b111100000 #
b111011100 $
1!
#240000
0!
#241000
b111100100 #
b111100000 $
1!
#242000
0!
#243000
b111101000 #
b111100100 $
1!
#244000
0!
#245000
b111101100 #
b111101000 $
1!
#246000
0!
#247000
b111110000 #
b111101100 $
1!
#248000
0!
#249000
b111110100 #
b111110000 $
1!
#250000
0!
#251000
b111111000 #
b111110100 $
1!
#252000
0!
#253000
b111111100 #
b111111000 $
1!
#254000
0!
#255000
b1000000000 #
b111111100 $
1!
#256000
0!
#257000
b1000000100 #
b1000000000 $
1!
#258000
0!
#259000
b1000001000 #
b1000000100 $
1!
#260000
0!
#261000
b1000001100 #
b1000001000 $
1!
#262000
0!
#263000
b1000010000 #
b1000001100 $
1!
#264000
0!
#265000
b1000010100 #
b1000010000 $
1!
#266000
0!
#267000
b1000011000 #
b1000010100 $
1!
#268000
0!
#269000
b1000011100 #
b1000011000 $
1!
#270000
0!
#271000
b1000100000 #
b1000011100 $
1!
#272000
0!
#273000
b1000100100 #
b1000100000 $
1!
#274000
0!
#275000
b1000101000 #
b1000100100 $
1!
#276000
0!
#277000
b1000101100 #
b1000101000 $
1!
#278000
0!
#279000
b1000110000 #
b1000101100 $
1!
#280000
0!
#281000
b1000110100 #
b1000110000 $
1!
#282000
0!
#283000
b1000111000 #
b1000110100 $
1!
#284000
0!
#285000
b1000111100 #
b1000111000 $
1!
#286000
0!
#287000
b1001000000 #
b1000111100 $
1!
#288000
0!
#289000
b1001000100 #
b1001000000 $
1!
#290000
0!
#291000
b1001001000 #
b1001000100 $
1!
#292000
0!
#293000
b1001001100 #
b1001001000 $
1!
#294000
0!
#295000
b1001010000 #
b1001001100 $
1!
#296000
0!
#297000
b1001010100 #
b1001010000 $
1!
#298000
0!
#299000
b1001011000 #
b1001010100 $
1!
#300000
0!
#301000
b1001011100 #
b1001011000 $
1!
#302000
0!
#303000
b1001100000 #
b1001011100 $
1!
#304000
0!
#305000
b1001100100 #
b1001100000 $
1!
#306000
0!
#307000
b1001101000 #
b1001100100 $
1!
#308000
0!
#309000
b1001101100 #
b1001101000 $
1!
#310000
0!
#311000
b1001110000 #
b1001101100 $
1!
#312000
0!
#313000
b1001110100 #
b1001110000 $
1!
#314000
0!
#315000
b1001111000 #
b1001110100 $
1!
#316000
0!
#317000
b1001111100 #
b1001111000 $
1!
#318000
0!
#319000
b1010000000 #
b1001111100 $
1!
#320000
0!
#321000
b1010000100 #
b1010000000 $
1!
#322000
0!
#323000
b1010001000 #
b1010000100 $
1!
#324000
0!
#325000
b1010001100 #
b1010001000 $
1!
#326000
0!
#327000
b1010010000 #
b1010001100 $
1!
#328000
0!
#329000
b1010010100 #
b1010010000 $
1!
#330000
0!
#331000
b1010011000 #
b1010010100 $
1!
#332000
0!
#333000
b1010011100 #
b1010011000 $
1!
#334000
0!
#335000
b1010100000 #
b1010011100 $
1!
#336000
0!
#337000
b1010100100 #
b1010100000 $
1!
#338000
0!
#339000
b1010101000 #
b1010100100 $
1!
#340000
0!
#341000
b1010101100 #
b1010101000 $
1!
#342000
0!
#343000
b1010110000 #
b1010101100 $
1!
#344000
0!
#345000
b1010110100 #
b1010110000 $
1!
#346000
0!
#347000
b1010111000 #
b1010110100 $
1!
#348000
0!
#349000
b1010111100 #
b1010111000 $
1!
#350000
0!
#351000
b1011000000 #
b1010111100 $
1!
#352000
0!
#353000
b1011000100 #
b1011000000 $
1!
#354000
0!
#355000
b1011001000 #
b1011000100 $
1!
#356000
0!
#357000
b1011001100 #
b1011001000 $
1!
#358000
0!
#359000
b1011010000 #
b1011001100 $
1!
#360000
0!
#361000
b1011010100 #
b1011010000 $
1!
#362000
0!
#363000
b1011011000 #
b1011010100 $
1!
#364000
0!
#365000
b1011011100 #
b1011011000 $
1!
#366000
0!
#367000
b1011100000 #
b1011011100 $
1!
#368000
0!
#369000
b1011100100 #
b1011100000 $
1!
#370000
0!
#371000
b1011101000 #
b1011100100 $
1!
#372000
0!
#373000
b1011101100 #
b1011101000 $
1!
#374000
0!
#375000
b1011110000 #
b1011101100 $
1!
#376000
0!
#377000
b1011110100 #
b1011110000 $
1!
#378000
0!
#379000
b1011111000 #
b1011110100 $
1!
#380000
0!
#381000
b1011111100 #
b1011111000 $
1!
#382000
0!
#383000
b1100000000 #
b1011111100 $
1!
#384000
0!
#385000
b1100000100 #
b1100000000 $
1!
#386000
0!
#387000
b1100001000 #
b1100000100 $
1!
#388000
0!
#389000
b1100001100 #
b1100001000 $
1!
#390000
0!
#391000
b1100010000 #
b1100001100 $
1!
#392000
0!
#393000
b1100010100 #
b1100010000 $
1!
#394000
0!
#395000
b1100011000 #
b1100010100 $
1!
#396000
0!
#397000
b1100011100 #
b1100011000 $
1!
#398000
0!
#399000
b1100100000 #
b1100011100 $
1!
#400000
0!
#401000
b1100100100 #
b1100100000 $
1!
#402000
0!
#403000
b1100101000 #
b1100100100 $
1!
#404000
0!
#405000
b1100101100 #
b1100101000 $
1!
#406000
0!
#407000
b1100110000 #
b1100101100 $
1!
#408000
0!
#409000
b1100110100 #
b1100110000 $
1!
#410000
0!
#411000
b1100111000 #
b1100110100 $
1!
#412000
0!
#413000
b1100111100 #
b1100111000 $
1!
#414000
0!
#415000
b1101000000 #
b1100111100 $
1!
#416000
0!
#417000
b1101000100 #
b1101000000 $
1!
#418000
0!
#419000
b1101001000 #
b1101000100 $
1!
#420000
0!
#421000
b1101001100 #
b1101001000 $
1!
#422000
0!
#423000
b1101010000 #
b1101001100 $
1!
#424000
0!
